^D:\BSUIR\3SEM\PL\LABAS\GRAPHICS\SDL_DEMO\DEBUG\SDL_DEMO.OBJ|D:\BSUIR\3SEM\PL\LABAS\GRAPHICS\SDL_DEMO\DEBUG\STDAFX.OBJ
D:\BSUIR\3SEM\PL\LABAS\GRAPHICS\DEBUG\LABEXAMPLE.EXE
D:\BSUIR\3SEM\PL\LABAS\GRAPHICS\DEBUG\LABEXAMPLE.ILK
D:\BSUIR\3SEM\PL\LABAS\GRAPHICS\DEBUG\LABEXAMPLE.PDB
^D:\BSUIR\3SEM\PL\LABWORKS\GRAPHICS\SDL_DEMO\DEBUG\SDL_DEMO.OBJ|D:\BSUIR\3SEM\PL\LABWORKS\GRAPHICS\SDL_DEMO\DEBUG\STDAFX.OBJ
D:\BSUIR\3SEM\PL\LABWORKS\GRAPHICS\DEBUG\LABEXAMPLE.EXE
D:\BSUIR\3SEM\PL\LABWORKS\GRAPHICS\DEBUG\LABEXAMPLE.ILK
D:\BSUIR\3SEM\PL\LABWORKS\GRAPHICS\DEBUG\LABEXAMPLE.PDB
